com\boomi\connector\demo\DemoExecuteEchoTest$1.class
com\boomi\connector\demo\DemoExecuteEchoTest.class
com\boomi\connector\demo\DemoBrowserTest.class
com\boomi\connector\demo\DemoOperationTest.class
